{"items":[{"id":67884,"card_number":"DDD\/S129-119S","variation":0,"title_number":"DDD","card_name":"\u7537\u306e\u6c7a\u610f \u30aa\u30ab\u30eb\u30f3","card_name_kana":"\u30aa\u30c8\u30b3\u30ce\u30b1\u30c4\u30a4 \u30aa\u30ab\u30eb\u30f3","card_kind":"2","color":"[[yellow.gif]]","level":"3","cost":"2","power":"8000","soul":"[[soul.gif]][[soul.gif]]","card_trigger":"[[soul.gif]]","parallel_param":"\u3007","text":"\u3010\u6c38\u3011 \u3042\u306a\u305f\u306e\u30bf\u30fc\u30f3\u4e2d\u3001\u3053\u306e\u30ab\u30fc\u30c9\u306e\u30d1\u30ef\u30fc\u3092\uff0b4000\u3002\u003Cbr\u003E\u3010\u81ea\u3011\u3010CX\u30b3\u30f3\u30dc\u3011 \u3042\u306a\u305f\u306e\u30a2\u30bf\u30c3\u30af\u30d5\u30a7\u30a4\u30ba\u306e\u59cb\u3081\u306b\u3001CX\u7f6e\u5834\u306b\u300c\u304c\u3093\u3070\u308c\u30aa\u30ab\u30eb\u30f3\u300d\u304c\u3042\u308a\u3001\u4ed6\u306e\u3042\u306a\u305f\u306e\u524d\u5217\u306e\u30ad\u30e3\u30e9\u304c\u3044\u306a\u3044\u306a\u3089\u3001\u305d\u306e\u30bf\u30fc\u30f3\u4e2d\u3001\u3053\u306e\u30ab\u30fc\u30c9\u306f\u6b21\u306e\u80fd\u529b\u3092\u5f97\u308b\u3002\u300e\u3010\u81ea\u3011\u3010\u30bf\u30fc\u30f31\u3011\uff3b(5) \u624b\u672d\u306e\u300c\u7537\u306e\u6c7a\u610f \u30aa\u30ab\u30eb\u30f3\u300d\u30921\u679a\u63a7\u3048\u5ba4\u306b\u7f6e\u304d\u3001\u624b\u672d\u306e\u3001\u300a\u4eba\u9593\u300b\u304b\u300a\u602a\u7570\u300b\u306e\u30ad\u30e3\u30e9\u30922\u679a\u63a7\u3048\u5ba4\u306b\u7f6e\u304f\uff3d \u3053\u306e\u30ab\u30fc\u30c9\u306e\u30a2\u30bf\u30c3\u30af\u306e\u7d42\u308f\u308a\u306b\u3001\u3042\u306a\u305f\u306f\u30b3\u30b9\u30c8\u3092\u6255\u3063\u3066\u3088\u3044\u3002\u305d\u3046\u3057\u305f\u3089\u3001\u76f8\u624b\u306b1\u30c0\u30e1\u30fc\u30b8\u30922\u56de\u4e0e\u3048\u3001\u76f8\u624b\u306b2\u30c0\u30e1\u30fc\u30b8\u30924\u56de\u4e0e\u3048\u3001\u3053\u306e\u30ab\u30fc\u30c9\u3092\u3010\u30b9\u30bf\u30f3\u30c9\u3011\u3057\u3001\u30a2\u30f3\u30b3\u30fc\u30eb\u30b9\u30c6\u30c3\u30d7\u306e\u59cb\u3081\u306b\u3001\u3053\u306e\u30ab\u30fc\u30c9\u3092\u63a7\u3048\u5ba4\u306b\u7f6e\u304f\u3002\u300f\uff08\u30c0\u30e1\u30fc\u30b8\u30ad\u30e3\u30f3\u30bb\u30eb\u306f\u767a\u751f\u3059\u308b\uff09","flavor":"-","picture":"d\/ddd_s129\/ddd_s129_119s.png","expansion":551,"rare":"PR","feature1":"\u4eba\u9593","feature2":"\u30aa\u30ab\u30eb\u30c8","feature3":"-","side":"-2"},{"id":67885,"card_number":"DDD\/S129-120S","variation":0,"title_number":"DDD","card_name":"\u30aa\u30ab\u30eb\u30c6\u30a3\u30c3\u30af\u30ae\u30e3\u30eb \u30a2\u30a4\u30e9","card_name_kana":"\u30aa\u30ab\u30eb\u30c6\u30a3\u30c3\u30af\u30ae\u30e3\u30eb \u30a2\u30a4\u30e9","card_kind":"2","color":"[[green.gif]]","level":"0","cost":"0","power":"500","soul":"[[soul.gif]]","card_trigger":"-","parallel_param":"\u3007","text":"\u3010\u6c38\u3011 \u3042\u306a\u305f\u306e\u30ad\u30e3\u30e9\u3059\u3079\u3066\u304c\u300a\u4eba\u9593\u300b\u304b\u300a\u602a\u7570\u300b\u306a\u3089\u3001\u3053\u306e\u30ab\u30fc\u30c9\u306e\u30d1\u30ef\u30fc\u3092\uff0b3000\u3002\u003Cbr\u003E\u3010\u81ea\u3011\uff3b(1) \u3042\u306a\u305f\u306e\u63a7\u3048\u5ba4\u306e\u3001\u300a\u4eba\u9593\u300b\u304b\u300a\u602a\u7570\u300b\u306e\u30ad\u30e3\u30e9\u30921\u679a\u30af\u30ed\u30c3\u30af\u7f6e\u5834\u306e\u4e0b\u306b\u7f6e\u304f\uff3d \u3053\u306e\u30ab\u30fc\u30c9\u304c\u821e\u53f0\u304b\u3089\u63a7\u3048\u5ba4\u306b\u7f6e\u304b\u308c\u305f\u6642\u3001\u3042\u306a\u305f\u306f\u30b3\u30b9\u30c8\u3092\u6255\u3063\u3066\u3088\u3044\u3002\u305d\u3046\u3057\u305f\u3089\u3001\u3042\u306a\u305f\u306f\u81ea\u5206\u306e\u5c71\u672d\u3092\u4e0a\u304b\u30892\u679a\u307e\u3067\u898b\u3066\u3001\u300a\u4eba\u9593\u300b\u304b\u300a\u602a\u7570\u300b\u306e\u30ad\u30e3\u30e9\u30922\u679a\u307e\u3067\u9078\u3093\u3067\u76f8\u624b\u306b\u898b\u305b\u3001\u624b\u672d\u306b\u52a0\u3048\u3001\u6b8b\u308a\u306e\u30ab\u30fc\u30c9\u3092\u63a7\u3048\u5ba4\u306b\u7f6e\u304f\u3002","flavor":"-","picture":"d\/ddd_s129\/ddd_s129_120s.png","expansion":551,"rare":"PR","feature1":"\u4eba\u9593","feature2":"\u7f8e\u5c11\u5973","feature3":"-","side":"-2"},{"id":67886,"card_number":"DDD\/S129-121S","variation":0,"title_number":"DDD","card_name":"\u30aa\u30ab\u30eb\u30c8\u306a\u4e16\u754c \u30a2\u30a4\u30e9","card_name_kana":"\u30aa\u30ab\u30eb\u30c8\u30ca\u30bb\u30ab\u30a4 \u30a2\u30a4\u30e9","card_kind":"2","color":"[[green.gif]]","level":"3","cost":"2","power":"7000","soul":"[[soul.gif]][[soul.gif]]","card_trigger":"[[soul.gif]]","parallel_param":"\u3007","text":"\u3010\u6c38\u3011 \u3042\u306a\u305f\u306e\u3001\u300a\u4eba\u9593\u300b\u304b\u300a\u602a\u7570\u300b\u306e\u30ad\u30e3\u30e9\u304c4\u679a\u4ee5\u4e0a\u306a\u3089\u3001\u3042\u306a\u305f\u306e\u624b\u672d\u306e\u3053\u306e\u30ab\u30fc\u30c9\u306e\u30ec\u30d9\u30eb\u3092\uff0d1\u3002\u003Cbr\u003E\u3010\u6c38\u3011 \u4ed6\u306e\u3042\u306a\u305f\u306e\u30ad\u30e3\u30e9\u304c3\u679a\u4ee5\u4e0a\u306a\u3089\u3001\u3053\u306e\u30ab\u30fc\u30c9\u306e\u30d1\u30ef\u30fc\u3092\uff0b4000\u3002\u003Cbr\u003E\u3010\u81ea\u3011 \u3053\u306e\u30ab\u30fc\u30c9\u304c\u624b\u672d\u304b\u3089\u821e\u53f0\u306b\u7f6e\u304b\u308c\u305f\u6642\u3001\u6b21\u306e2\u3064\u306e\u52b9\u679c\u306e\u3046\u3061\u3042\u306a\u305f\u304c\u9078\u3093\u30601\u3064\u3092\u884c\u3046\u3002\u300e\u3042\u306a\u305f\u306f\u81ea\u5206\u306e\u5c71\u672d\u3092\u4e0a\u304b\u30893\u679a\u307e\u3067\u898b\u3066\u3001\u5c71\u672d\u306e\u4e0a\u306b\u597d\u304d\u306a\u9806\u756a\u3067\u7f6e\u304d\u30011\u679a\u5f15\u304f\u3002\u300f\u300e\uff3b(1) \u624b\u672d\u30921\u679a\u63a7\u3048\u5ba4\u306b\u7f6e\u304f\uff3d \u3042\u306a\u305f\u306f\u30b3\u30b9\u30c8\u3092\u6255\u3063\u3066\u3088\u3044\u3002\u305d\u3046\u3057\u305f\u3089\u3001\u76f8\u624b\u306b2\u30c0\u30e1\u30fc\u30b8\u3092\u4e0e\u3048\u308b\u3002\u300f\uff08\u30c0\u30e1\u30fc\u30b8\u30ad\u30e3\u30f3\u30bb\u30eb\u306f\u767a\u751f\u3059\u308b\uff09","flavor":"-","picture":"d\/ddd_s129\/ddd_s129_121s.png","expansion":551,"rare":"PR","feature1":"\u4eba\u9593","feature2":"\u7f8e\u5c11\u5973","feature3":"-","side":"-2"},{"id":67887,"card_number":"DDD\/S129-122S","variation":0,"title_number":"DDD","card_name":"\u30aa\u30ab\u30eb\u30c6\u30a3\u30c3\u30af\u30ae\u30e3\u30eb \u30e2\u30e2","card_name_kana":"\u30aa\u30ab\u30eb\u30c6\u30a3\u30c3\u30af\u30ae\u30e3\u30eb \u30e2\u30e2","card_kind":"2","color":"[[red.gif]]","level":"0","cost":"0","power":"2000","soul":"[[soul.gif]]","card_trigger":"-","parallel_param":"\u3007","text":"\u3010\u6c38\u3011 \u624b\u672d\u306b\u3053\u306e\u30ab\u30fc\u30c9\u304c\u3042\u308a\u3001\u3042\u306a\u305f\u306e\u3010\u30ab\u30a6\u30f3\u30bf\u30fc\u3011\u304c\u3042\u308b\u30ad\u30e3\u30e9\u304c\u3044\u308b\u306a\u3089\u3001\u3053\u306e\u30ab\u30fc\u30c9\u306f\u6b21\u306e\u80fd\u529b\u3092\u5f97\u308b\u3002\u300e\u3010\u8d77\u3011\u3010\u30ab\u30a6\u30f3\u30bf\u30fc\u3011 \u52a9\u592a\u52001000 \u30ec\u30d9\u30eb0 \uff3b\u624b\u672d\u306e\u3053\u306e\u30ab\u30fc\u30c9\u3092\u63a7\u3048\u5ba4\u306b\u7f6e\u304f\uff3d\u300f\u003Cbr\u003E\u3010\u81ea\u3011\uff3b\u624b\u672d\u306e\u3001\u300a\u4eba\u9593\u300b\u304b\u300a\u602a\u7570\u300b\u306e\u30ad\u30e3\u30e9\u30921\u679a\u63a7\u3048\u5ba4\u306b\u7f6e\u304f\uff3d \u3053\u306e\u30ab\u30fc\u30c9\u304c\u30a2\u30bf\u30c3\u30af\u3057\u305f\u6642\u3001\u3042\u306a\u305f\u306f\u30b3\u30b9\u30c8\u3092\u6255\u3063\u3066\u3088\u3044\u3002\u305d\u3046\u3057\u305f\u3089\u3001\u3042\u306a\u305f\u306f\u81ea\u5206\u306e\u5c71\u672d\u306e\u4e0a\u304b\u30893\u679a\u307e\u3067\u3092\u3001\u63a7\u3048\u5ba4\u306b\u7f6e\u304d\u3001\u81ea\u5206\u306e\u63a7\u3048\u5ba4\u306e\u30ec\u30d9\u30eb\uff38\u4ee5\u4e0b\u306e\u3001\u300a\u4eba\u9593\u300b\u304b\u300a\u602a\u7570\u300b\u306e\u30ad\u30e3\u30e9\u30921\u679a\u9078\u3073\u3001\u624b\u672d\u306b\u623b\u3059\u3002\uff38\u306f\u305d\u308c\u3089\u306e\u30ab\u30fc\u30c9\u306e\u3001\u300a\u4eba\u9593\u300b\u304b\u300a\u602a\u7570\u300b\u306e\u30ad\u30e3\u30e9\u306e\u679a\u6570\u306b\u7b49\u3057\u3044\u3002","flavor":"-","picture":"d\/ddd_s129\/ddd_s129_122s.png","expansion":551,"rare":"PR","feature1":"\u4eba\u9593","feature2":"\u8d85\u80fd\u529b","feature3":"-","side":"-2"},{"id":67888,"card_number":"DDD\/S129-123S","variation":0,"title_number":"DDD","card_name":"\u7d04\u675f\u3092\u5b88\u308b\u305f\u3081 \u30e2\u30e2","card_name_kana":"\u30e4\u30af\u30bd\u30af\u30f2\u30de\u30e2\u30eb\u30bf\u30e1 \u30e2\u30e2","card_kind":"2","color":"[[red.gif]]","level":"1","cost":"0","power":"1000","soul":"[[soul.gif]]","card_trigger":"-","parallel_param":"\u3007","text":"\u3010\u6c38\u3011 \u4ed6\u306e\u3042\u306a\u305f\u306e\u3001\u300a\u4eba\u9593\u300b\u304b\u300a\u602a\u7570\u300b\u306e\u30ad\u30e3\u30e9\u304c2\u679a\u4ee5\u4e0a\u306a\u3089\u3001\u3053\u306e\u30ab\u30fc\u30c9\u306e\u30d1\u30ef\u30fc\u3092\uff0b5000\u3002\u003Cbr\u003E\u3010\u6c38\u3011 \u7d4c\u9a13 \u624b\u672d\u306b\u3053\u306e\u30ab\u30fc\u30c9\u304c\u3042\u308a\u3001\u3042\u306a\u305f\u306e\u30ec\u30d9\u30eb\u7f6e\u5834\u306e\u30ab\u30fc\u30c9\u306e\u30ec\u30d9\u30eb\u306e\u5408\u8a08\u304c3\u4ee5\u4e0a\u306a\u3089\u3001\u3053\u306e\u30ab\u30fc\u30c9\u306f\u6b21\u306e\u80fd\u529b\u3092\u5f97\u308b\u3002\u300e\u3010\u8d77\u3011\u3010\u30ab\u30a6\u30f3\u30bf\u30fc\u3011 \u52a9\u592a\u52002000 \u30ec\u30d9\u30eb1 \uff3b\u624b\u672d\u306e\u3053\u306e\u30ab\u30fc\u30c9\u3092\u63a7\u3048\u5ba4\u306b\u7f6e\u304f\uff3d\u300f\u003Cbr\u003E\u3010\u81ea\u3011\u3010CX\u30b3\u30f3\u30dc\u3011 \u7d4c\u9a13 \u3053\u306e\u30ab\u30fc\u30c9\u304c\u30a2\u30bf\u30c3\u30af\u3057\u305f\u6642\u3001CX\u7f6e\u5834\u306b\u300c\u30e2\u30e2\u306e\u7d04\u675f\u300d\u304c\u3042\u308a\u3001\u3042\u306a\u305f\u306e\u30ec\u30d9\u30eb\u7f6e\u5834\u306e\u30ab\u30fc\u30c9\u306e\u30ec\u30d9\u30eb\u306e\u5408\u8a08\u304c3\u4ee5\u4e0a\u306a\u3089\u3001\u3042\u306a\u305f\u306f\u81ea\u5206\u306e\u5c71\u672d\u3092\u4e0a\u304b\u30891\u679a\u898b\u3066\u3001\u5c71\u672d\u306e\u4e0a\u304b\u63a7\u3048\u5ba4\u306b\u7f6e\u304d\u3001\u81ea\u5206\u306e\u63a7\u3048\u5ba4\u306e\u3001\u300a\u4eba\u9593\u300b\u304b\u300a\u602a\u7570\u300b\u306e\u30ad\u30e3\u30e9\u30921\u679a\u307e\u3067\u9078\u3073\u3001\u624b\u672d\u306b\u623b\u3059\u3002","flavor":"-","picture":"d\/ddd_s129\/ddd_s129_123s.png","expansion":551,"rare":"PR","feature1":"\u4eba\u9593","feature2":"\u8d85\u80fd\u529b","feature3":"-","side":"-2"},{"id":67889,"card_number":"DDD\/S129-124S","variation":0,"title_number":"DDD","card_name":"\u30aa\u30ab\u30eb\u30c8\u306a\u4e16\u754c \u30e2\u30e2","card_name_kana":"\u30aa\u30ab\u30eb\u30c8\u30ca\u30bb\u30ab\u30a4 \u30e2\u30e2","card_kind":"2","color":"[[red.gif]]","level":"3","cost":"2","power":"8500","soul":"[[soul.gif]][[soul.gif]]","card_trigger":"[[soul.gif]]","parallel_param":"\u3007","text":"\u3010\u6c38\u3011 \u7d4c\u9a13 \u3042\u306a\u305f\u306e\u30ec\u30d9\u30eb\u7f6e\u5834\u306e\u30ab\u30fc\u30c9\u306e\u30ec\u30d9\u30eb\u306e\u5408\u8a08\u304c6\u4ee5\u4e0a\u306a\u3089\u3001\u3042\u306a\u305f\u306e\u3001\u300a\u4eba\u9593\u300b\u304b\u300a\u602a\u7570\u300b\u306e\u30ad\u30e3\u30e9\u3059\u3079\u3066\u306b\u3001\u30d1\u30ef\u30fc\u3092\uff0b1500\u3002\u003Cbr\u003E\u3010\u81ea\u3011 \u3053\u306e\u30ab\u30fc\u30c9\u304c\u624b\u672d\u304b\u3089\u821e\u53f0\u306b\u7f6e\u304b\u308c\u305f\u6642\u3001\u3042\u306a\u305f\u306f\u81ea\u5206\u306e\u30af\u30ed\u30c3\u30af\u306e\u4e0a\u304b\u30891\u679a\u3092\u3001\u63a7\u3048\u5ba4\u306b\u7f6e\u3044\u3066\u3088\u3044\u3002\u003Cbr\u003E\u3010\u81ea\u3011\u3010CX\u30b3\u30f3\u30dc\u3011 \u7d4c\u9a13 \uff3b\u3010\u30b9\u30bf\u30f3\u30c9\u3011\u3057\u3066\u3044\u308b\u3053\u306e\u30ab\u30fc\u30c9\u3092\u3010\u30ec\u30b9\u30c8\u3011\u3059\u308b\uff3d \u3042\u306a\u305f\u306eCX\u7f6e\u5834\u306b\u300c\u30e2\u30a8\u30e2\u30a8\u6c17\u529f\u7832\u300d\u304c\u7f6e\u304b\u308c\u305f\u6642\u3001\u524d\u5217\u306b\u3053\u306e\u30ab\u30fc\u30c9\u304c\u3044\u3066\u3001\u3042\u306a\u305f\u306e\u30ec\u30d9\u30eb\u7f6e\u5834\u306e\u30ab\u30fc\u30c9\u306e\u30ec\u30d9\u30eb\u306e\u5408\u8a08\u304c6\u4ee5\u4e0a\u306a\u3089\u3001\u3042\u306a\u305f\u306f\u30b3\u30b9\u30c8\u3092\u6255\u3063\u3066\u3088\u3044\u3002\u305d\u3046\u3057\u305f\u3089\u3001\u76f8\u624b\u306b3\u30c0\u30e1\u30fc\u30b8\u30922\u56de\u4e0e\u3048\u308b\u3002\uff08\u30c0\u30e1\u30fc\u30b8\u30ad\u30e3\u30f3\u30bb\u30eb\u306f\u767a\u751f\u3059\u308b\uff09","flavor":"-","picture":"d\/ddd_s129\/ddd_s129_124s.png","expansion":551,"rare":"PR","feature1":"\u4eba\u9593","feature2":"\u8d85\u80fd\u529b","feature3":"-","side":"-2"},{"id":67890,"card_number":"DDD\/S129-125S","variation":0,"title_number":"DDD","card_name":"\u546a\u3044\u306e\u885d\u7a81 \u30b8\u30b8","card_name_kana":"\u30ce\u30ed\u30a4\u30ce\u30b7\u30e7\u30a6\u30c8\u30c4 \u30b8\u30b8","card_kind":"2","color":"[[blue.gif]]","level":"0","cost":"0","power":"1500","soul":"[[soul.gif]]","card_trigger":"-","parallel_param":"\u3007","text":"\u3010\u81ea\u3011\uff3b\u624b\u672d\u306e\u30c8\u30ea\u30ac\u30fc\u30a2\u30a4\u30b3\u30f3\u304c[[gate.gif]]\u306eCX\u30921\u679a\u63a7\u3048\u5ba4\u306b\u7f6e\u304f\uff3d \u3053\u306e\u30ab\u30fc\u30c9\u304c\u624b\u672d\u304b\u3089\u821e\u53f0\u306b\u7f6e\u304b\u308c\u305f\u6642\u304b\u821e\u53f0\u304b\u3089\u63a7\u3048\u5ba4\u306b\u7f6e\u304b\u308c\u305f\u6642\u3001\u3042\u306a\u305f\u306f\u30b3\u30b9\u30c8\u3092\u6255\u3063\u3066\u3088\u3044\u3002\u305d\u3046\u3057\u305f\u3089\u3001\u3042\u306a\u305f\u306f\u81ea\u5206\u306e\u5c71\u672d\u3092\u4e0a\u304b\u30895\u679a\u307e\u3067\u898b\u3066\u3001\u300a\u4eba\u9593\u300b\u304b\u300a\u602a\u7570\u300b\u306e\u30ad\u30e3\u30e9\u30921\u679a\u307e\u3067\u9078\u3093\u3067\u76f8\u624b\u306b\u898b\u305b\u3001\u624b\u672d\u306b\u52a0\u3048\u3001\u6b8b\u308a\u306e\u30ab\u30fc\u30c9\u3092\u63a7\u3048\u5ba4\u306b\u7f6e\u304f\u3002\u003Cbr\u003E\u3010\u81ea\u3011 \u3053\u306e\u30ab\u30fc\u30c9\u304c\u30a2\u30bf\u30c3\u30af\u3057\u305f\u6642\u3001\u4ed6\u306e\u3042\u306a\u305f\u306e\u3001\u300a\u4eba\u9593\u300b\u304b\u300a\u602a\u7570\u300b\u306e\u30ad\u30e3\u30e9\u304c\u3044\u308b\u306a\u3089\u3001\u305d\u306e\u30bf\u30fc\u30f3\u4e2d\u3001\u3053\u306e\u30ab\u30fc\u30c9\u306e\u30d1\u30ef\u30fc\u3092\uff0b3000\u3002","flavor":"-","picture":"d\/ddd_s129\/ddd_s129_125s.png","expansion":551,"rare":"PR","feature1":"\u4eba\u9593","feature2":"\u5e7c\u99b4\u67d3","feature3":"-","side":"-2"},{"id":67891,"card_number":"DDD\/S129-126S","variation":0,"title_number":"DDD","card_name":"\u597d\u6575\u624b \u30b8\u30b8","card_name_kana":"\u30b3\u30a6\u30c6\u30ad\u30b7\u30e5 \u30b8\u30b8","card_kind":"2","color":"[[blue.gif]]","level":"3","cost":"2","power":"10500","soul":"[[soul.gif]][[soul.gif]]","card_trigger":"[[soul.gif]]","parallel_param":"\u3007","text":"\u3010\u81ea\u3011\u3010CX\u30b3\u30f3\u30dc\u3011 \u3053\u306e\u30ab\u30fc\u30c9\u304c\u30a2\u30bf\u30c3\u30af\u3057\u305f\u6642\u3001CX\u7f6e\u5834\u306b\u300c\u90aa\u8996\u306e\u904a\u3073\u76f8\u624b\u300d\u304c\u3042\u308b\u306a\u3089\u3001\u3042\u306a\u305f\u306f\u76f8\u624b\u306e\u5c71\u672d\u3092\u4e0a\u304b\u30892\u679a\u307e\u3067\u898b\u3066\u3001\u30ab\u30fc\u30c9\u30922\u679a\u307e\u3067\u9078\u3073\u3001\u5c71\u672d\u306e\u4e0a\u306b\u597d\u304d\u306a\u9806\u756a\u3067\u7f6e\u304d\u3001\u6b8b\u308a\u306e\u30ab\u30fc\u30c9\u3092\u63a7\u3048\u5ba4\u306b\u7f6e\u304d\u3001\u6b21\u306e\u76f8\u624b\u306e\u30bf\u30fc\u30f3\u306e\u7d42\u308f\u308a\u307e\u3067\u3001\u3053\u306e\u30ab\u30fc\u30c9\u306e\u30d0\u30c8\u30eb\u4e2d\u3001\u3042\u306a\u305f\u306f\u76f8\u624b\u306e\u30ad\u30e3\u30e9\u306e\u3010\u81ea\u3011\u306e\u52b9\u679c\u306b\u3088\u308b\u30c0\u30e1\u30fc\u30b8\u3092\u53d7\u3051\u306a\u3044\u3002\u003Cbr\u003E\u3010\u81ea\u3011 \u5171\u9cf4 \uff3b\u624b\u672d\u306e\u300c\u90aa\u8996\u306e\u546a\u3044 \u30b8\u30b8\u300d\u30921\u679a\u516c\u958b\u3059\u308b\uff3d \u3053\u306e\u30ab\u30fc\u30c9\u304c\u624b\u672d\u304b\u3089\u821e\u53f0\u306b\u7f6e\u304b\u308c\u305f\u6642\u304b\u300e\u30c1\u30a7\u30f3\u30b8\u300f\u3067\u821e\u53f0\u306b\u7f6e\u304b\u308c\u305f\u6642\u3001\u3042\u306a\u305f\u306f\u30b3\u30b9\u30c8\u3092\u6255\u3063\u3066\u3088\u3044\u3002\u305d\u3046\u3057\u305f\u3089\u3001\u76f8\u624b\u306b1\u30c0\u30e1\u30fc\u30b8\u3092\u4e0e\u3048\u308b\u3002\uff08\u30c0\u30e1\u30fc\u30b8\u30ad\u30e3\u30f3\u30bb\u30eb\u306f\u767a\u751f\u3059\u308b\uff09","flavor":"-","picture":"d\/ddd_s129\/ddd_s129_126s.png","expansion":551,"rare":"PR","feature1":"\u4eba\u9593","feature2":"\u5e7c\u99b4\u67d3","feature3":"-","side":"-2"},{"id":67765,"card_number":"DDD\/S129-P01","variation":0,"title_number":"DDD","card_name":"\u8d85\u5e38\u7684\u306a\u6311\u6226\u8005 \u30e2\u30e2","card_name_kana":"\u30c1\u30e7\u30a6\u30b8\u30e7\u30a6\u30c6\u30ad\u30ca\u30c1\u30e7\u30a6\u30bb\u30f3\u30b7\u30e3 \u30e2\u30e2","card_kind":"2","color":"[[red.gif]]","level":"0","cost":"0","power":"1500","soul":"[[soul.gif]]","card_trigger":"-","parallel_param":"","text":"\u3010\u6c38\u3011 \u4ed6\u306e\u3042\u306a\u305f\u306e\u3001\u300a\u4eba\u9593\u300b\u304b\u300a\u602a\u7570\u300b\u306e\u30ad\u30e3\u30e9\u3059\u3079\u3066\u306b\u3001\u30d1\u30ef\u30fc\u3092\uff0b500\u3002\u003Cbr\u003E\u3010\u8d77\u3011\uff3b\u624b\u672d\u30921\u679a\u63a7\u3048\u5ba4\u306b\u7f6e\u304d\u3001\u3053\u306e\u30ab\u30fc\u30c9\u3092\u5c71\u672d\u306e\u4e0b\u306b\u7f6e\u304f\uff3d \u3042\u306a\u305f\u306f\u81ea\u5206\u306e\u5c71\u672d\u3092\u898b\u3066\u300a\u4eba\u9593\u300b\u304b\u300a\u602a\u7570\u300b\u306e\u30ad\u30e3\u30e9\u30921\u679a\u307e\u3067\u9078\u3093\u3067\u76f8\u624b\u306b\u898b\u305b\u3001\u624b\u672d\u306b\u52a0\u3048\u3001\u305d\u306e\u5c71\u672d\u3092\u30b7\u30e3\u30c3\u30d5\u30eb\u3059\u308b\u3002","flavor":"-","picture":"d\/ddd_s129\/ddd_s129_p01.png","expansion":551,"rare":"PR","feature1":"\u4eba\u9593","feature2":"\u8d85\u80fd\u529b","feature3":"-","side":"-2"},{"id":67906,"card_number":"DDD\/S129-P01EX","variation":0,"title_number":"DDD","card_name":"\u8d85\u5e38\u7684\u306a\u6311\u6226\u8005 \u30e2\u30e2","card_name_kana":"\u30c1\u30e7\u30a6\u30b8\u30e7\u30a6\u30c6\u30ad\u30ca\u30c1\u30e7\u30a6\u30bb\u30f3\u30b7\u30e3 \u30e2\u30e2","card_kind":"2","color":"[[red.gif]]","level":"0","cost":"0","power":"1500","soul":"[[soul.gif]]","card_trigger":"-","parallel_param":"\u3007","text":"\u3010\u6c38\u3011 \u4ed6\u306e\u3042\u306a\u305f\u306e\u3001\u300a\u4eba\u9593\u300b\u304b\u300a\u602a\u7570\u300b\u306e\u30ad\u30e3\u30e9\u3059\u3079\u3066\u306b\u3001\u30d1\u30ef\u30fc\u3092\uff0b500\u3002\u003Cbr\u003E\u3010\u8d77\u3011\uff3b\u624b\u672d\u30921\u679a\u63a7\u3048\u5ba4\u306b\u7f6e\u304d\u3001\u3053\u306e\u30ab\u30fc\u30c9\u3092\u5c71\u672d\u306e\u4e0b\u306b\u7f6e\u304f\uff3d \u3042\u306a\u305f\u306f\u81ea\u5206\u306e\u5c71\u672d\u3092\u898b\u3066\u300a\u4eba\u9593\u300b\u304b\u300a\u602a\u7570\u300b\u306e\u30ad\u30e3\u30e9\u30921\u679a\u307e\u3067\u9078\u3093\u3067\u76f8\u624b\u306b\u898b\u305b\u3001\u624b\u672d\u306b\u52a0\u3048\u3001\u305d\u306e\u5c71\u672d\u3092\u30b7\u30e3\u30c3\u30d5\u30eb\u3059\u308b\u3002","flavor":"-","picture":"d\/ddd_s129\/ddd_s129_p01ex.png","expansion":551,"rare":"PR+","feature1":"\u4eba\u9593","feature2":"\u8d85\u80fd\u529b","feature3":"-","side":"-2"},{"id":67892,"card_number":"DDD\/S129-P01S","variation":0,"title_number":"DDD","card_name":"\u8d85\u5e38\u7684\u306a\u6311\u6226\u8005 \u30e2\u30e2","card_name_kana":"\u30c1\u30e7\u30a6\u30b8\u30e7\u30a6\u30c6\u30ad\u30ca\u30c1\u30e7\u30a6\u30bb\u30f3\u30b7\u30e3 \u30e2\u30e2","card_kind":"2","color":"[[red.gif]]","level":"0","cost":"0","power":"1500","soul":"[[soul.gif]]","card_trigger":"-","parallel_param":"\u3007","text":"\u3010\u6c38\u3011 \u4ed6\u306e\u3042\u306a\u305f\u306e\u3001\u300a\u4eba\u9593\u300b\u304b\u300a\u602a\u7570\u300b\u306e\u30ad\u30e3\u30e9\u3059\u3079\u3066\u306b\u3001\u30d1\u30ef\u30fc\u3092\uff0b500\u3002\u003Cbr\u003E\u3010\u8d77\u3011\uff3b\u624b\u672d\u30921\u679a\u63a7\u3048\u5ba4\u306b\u7f6e\u304d\u3001\u3053\u306e\u30ab\u30fc\u30c9\u3092\u5c71\u672d\u306e\u4e0b\u306b\u7f6e\u304f\uff3d \u3042\u306a\u305f\u306f\u81ea\u5206\u306e\u5c71\u672d\u3092\u898b\u3066\u300a\u4eba\u9593\u300b\u304b\u300a\u602a\u7570\u300b\u306e\u30ad\u30e3\u30e9\u30921\u679a\u307e\u3067\u9078\u3093\u3067\u76f8\u624b\u306b\u898b\u305b\u3001\u624b\u672d\u306b\u52a0\u3048\u3001\u305d\u306e\u5c71\u672d\u3092\u30b7\u30e3\u30c3\u30d5\u30eb\u3059\u308b\u3002","flavor":"-","picture":"d\/ddd_s129\/ddd_s129_p01s.png","expansion":551,"rare":"PR","feature1":"\u4eba\u9593","feature2":"\u8d85\u80fd\u529b","feature3":"-","side":"-2"},{"id":67907,"card_number":"DDD\/S129-P02EX","variation":0,"title_number":"DDD","card_name":"\u30aa\u30ab\u30eb\u30c8\u304c\u6ea2\u308c\u3066\u308b \u30aa\u30ab\u30eb\u30f3","card_name_kana":"\u30aa\u30ab\u30eb\u30c8\u30ac\u30a2\u30d5\u30ec\u30c6\u30eb \u30aa\u30ab\u30eb\u30f3","card_kind":"2","color":"[[yellow.gif]]","level":"0","cost":"0","power":"2000","soul":"[[soul.gif]]","card_trigger":"-","parallel_param":"\u3007","text":"\u3010\u81ea\u3011 \u3042\u306a\u305f\u306e\u30c8\u30ea\u30ac\u30fc\u30a2\u30a4\u30b3\u30f3\u304c[[choice.gif]]\u306eCX\u304cCX\u7f6e\u5834\u306b\u7f6e\u304b\u308c\u305f\u6642\u3001\u3042\u306a\u305f\u306e\u30ad\u30e3\u30e9\u3059\u3079\u3066\u306b\u3001\u305d\u306e\u30bf\u30fc\u30f3\u4e2d\u3001\u30d1\u30ef\u30fc\u3092\uff0b500\u3002\u003Cbr\u003E\u3010\u8d77\u3011 \u96c6\u4e2d \uff3b(1) \u3053\u306e\u30ab\u30fc\u30c9\u3092\u3010\u30ec\u30b9\u30c8\u3011\u3059\u308b\uff3d \u3042\u306a\u305f\u306f\u81ea\u5206\u306e\u5c71\u672d\u306e\u4e0a\u304b\u30894\u679a\u3092\u3081\u304f\u308a\u3001\u63a7\u3048\u5ba4\u306b\u7f6e\u304f\u3002\u305d\u308c\u3089\u306e\u30ab\u30fc\u30c9\u306e\u30c8\u30ea\u30ac\u30fc\u30a2\u30a4\u30b3\u30f3\u304c[[choice.gif]]\u306eCX1\u679a\u306b\u3064\u304d\u3001\u3042\u306a\u305f\u306f\u81ea\u5206\u306e\u63a7\u3048\u5ba4\u306e\u3001\u300a\u4eba\u9593\u300b\u304b\u300a\u602a\u7570\u300b\u306e\u30ad\u30e3\u30e9\u30921\u679a\u307e\u3067\u9078\u3073\u3001\u624b\u672d\u306b\u623b\u3057\u3001\u81ea\u5206\u306e\u30ad\u30e3\u30e9\u30921\u679a\u9078\u3073\u3001\u305d\u306e\u30bf\u30fc\u30f3\u4e2d\u3001\u30d1\u30ef\u30fc\u3092\uff0b1000\u3002","flavor":"-","picture":"d\/ddd_s129\/ddd_s129_p02ex.png","expansion":551,"rare":"PR+","feature1":"\u4eba\u9593","feature2":"\u30aa\u30ab\u30eb\u30c8","feature3":"-","side":"-2"},{"id":67893,"card_number":"DDD\/S129-P02S","variation":0,"title_number":"DDD","card_name":"\u30aa\u30ab\u30eb\u30c8\u304c\u6ea2\u308c\u3066\u308b \u30aa\u30ab\u30eb\u30f3","card_name_kana":"\u30aa\u30ab\u30eb\u30c8\u30ac\u30a2\u30d5\u30ec\u30c6\u30eb \u30aa\u30ab\u30eb\u30f3","card_kind":"2","color":"[[yellow.gif]]","level":"0","cost":"0","power":"2000","soul":"[[soul.gif]]","card_trigger":"-","parallel_param":"\u3007","text":"\u3010\u81ea\u3011 \u3042\u306a\u305f\u306e\u30c8\u30ea\u30ac\u30fc\u30a2\u30a4\u30b3\u30f3\u304c[[choice.gif]]\u306eCX\u304cCX\u7f6e\u5834\u306b\u7f6e\u304b\u308c\u305f\u6642\u3001\u3042\u306a\u305f\u306e\u30ad\u30e3\u30e9\u3059\u3079\u3066\u306b\u3001\u305d\u306e\u30bf\u30fc\u30f3\u4e2d\u3001\u30d1\u30ef\u30fc\u3092\uff0b500\u3002\u003Cbr\u003E\u3010\u8d77\u3011 \u96c6\u4e2d \uff3b(1) \u3053\u306e\u30ab\u30fc\u30c9\u3092\u3010\u30ec\u30b9\u30c8\u3011\u3059\u308b\uff3d \u3042\u306a\u305f\u306f\u81ea\u5206\u306e\u5c71\u672d\u306e\u4e0a\u304b\u30894\u679a\u3092\u3081\u304f\u308a\u3001\u63a7\u3048\u5ba4\u306b\u7f6e\u304f\u3002\u305d\u308c\u3089\u306e\u30ab\u30fc\u30c9\u306e\u30c8\u30ea\u30ac\u30fc\u30a2\u30a4\u30b3\u30f3\u304c[[choice.gif]]\u306eCX1\u679a\u306b\u3064\u304d\u3001\u3042\u306a\u305f\u306f\u81ea\u5206\u306e\u63a7\u3048\u5ba4\u306e\u3001\u300a\u4eba\u9593\u300b\u304b\u300a\u602a\u7570\u300b\u306e\u30ad\u30e3\u30e9\u30921\u679a\u307e\u3067\u9078\u3073\u3001\u624b\u672d\u306b\u623b\u3057\u3001\u81ea\u5206\u306e\u30ad\u30e3\u30e9\u30921\u679a\u9078\u3073\u3001\u305d\u306e\u30bf\u30fc\u30f3\u4e2d\u3001\u30d1\u30ef\u30fc\u3092\uff0b1000\u3002","flavor":"-","picture":"d\/ddd_s129\/ddd_s129_p02s.png","expansion":551,"rare":"PR","feature1":"\u4eba\u9593","feature2":"\u30aa\u30ab\u30eb\u30c8","feature3":"-","side":"-2"}],"total":553,"page":19,"limit":30,"page_count":19}